<?xml version="1.0" encoding="utf-8"?>
<!-- Generator: Adobe Illustrator 14.0.0, SVG Export Plug-In . SVG Version: 6.00 Build 43363)  -->
<!DOCTYPE svg PUBLIC "-//W3C//DTD SVG 1.1//EN" "http://www.w3.org/Graphics/SVG/1.1/DTD/svg11.dtd">
<svg version="1.1" id="Lager_1" xmlns="http://www.w3.org/2000/svg" xmlns:xlink="http://www.w3.org/1999/xlink" x="0px" y="0px"
	 width="221px" height="221.332px" viewBox="0 0 221 221.332" enable-background="new 0 0 221 221.332" xml:space="preserve">
<path fill="#333B4C" d="M110.459,1.396C50.248,1.396,1.44,50.202,1.44,110.411c0,60.207,48.808,109.016,109.019,109.016
	c60.207,0,109.016-48.809,109.016-109.016C219.475,50.202,170.666,1.396,110.459,1.396z M62.234,178.584
	c-13.536,0-21.087-8.264-21.087-20.088c0-9.689,6.125-19.092,17.381-19.092c5.7,0,13.965,0.428,13.965,9.545
	c0,1.568-0.285,3.562-0.855,5.699c-3.562-2.992-5.7-3.703-8.547-3.703c-6.557,0-9.977,5.271-9.977,10.541
	c0,7.41,5.557,9.975,9.69,9.975c6.41,0,10.259-2.85,13.534-17.525L98.708,52.211c-12.395,5.131-20.089,15.957-20.089,31.201
	c0,7.268,1.852,8.406,1.994,9.689c-9.829,0-15.244-3.562-15.244-13.82c0-18.951,26.216-37.043,50.009-37.043h5.699L99.706,143.393
	C95.146,165.191,85.601,178.584,62.234,178.584z M164.952,149.092c-10.115,0-14.531-6.695-14.531-15.672
	c0-2.279,0.285-4.701,0.854-7.123l5.414-25.645c0.143-0.998,0.285-2.137,0.285-3.277c0-4.559-1.994-8.834-6.41-8.834
	c-3.42,0-6.127,0.998-8.977,3.135l-12.252,57.416h-20.516l20.658-96.881l21.086-2.85l-7.695,36.189
	c5.842-4.275,12.396-7.693,18.664-7.693c7.979,0,16.385,8.689,16.385,18.094c0,0.996,0,2.137-0.285,3.133l-5.842,27.213
	c-0.426,1.852-1.139,3.988-1.139,5.842c0,2.422,1.139,4.273,5.414,4.273c0.996,0,2.564,0,3.703-0.428
	C175.78,148.238,169.796,149.092,164.952,149.092z"/>
</svg>
